EDA_peer.utf8
…
Standard deviation would be a helpful statistic to determine the spread variation of houses price among neighborhoods. To identify the most and least expensive neighborhood, we would take median as a good factor to measure.

ames_train %>%
  group_by(Neighborhood) %>%
  summarise(sd = sd(price, na.rm = TRUE), median = median(price, na.rm = TRUE)) %>%
  arrange(desc(median)) 

## `summarise()` ungrouping output (override with `.groups` argument)

## # A tibble: 27 x 3
##    Neighborhood      sd  median
##    <fct>          <dbl>   <dbl>
##  1 StoneBr      123459. 340692.
##  2 NridgHt      105089. 336860 
##  3 NoRidge       35889. 290000 
##  4 GrnHill       70711. 280000 
##  5 Timber        84030. 232500 
##  6 Somerst       65199. 221650 
##  7 Greens        29063. 212625 
##  8 Veenker       72545. 205750 
##  9 Crawfor       71268. 205000 
## 10 CollgCr       52786. 195800 
## #  with 17 more rows
…
